Reflections on the use of population representative CIPs • LTFGRS
…
# setting NAs to be NAs again
trio = trio %>% mutate(across(everything(), ~ ifelse(str_detect(.x, "NA"), NA, .x)))

print(trio)

## # A tibble: 8,000 × 3
##    id    momcol dadcol
##    <chr> <chr>  <chr> 
##  1 pid1  mom1   dad1  
##  2 sib1  mom1   dad1  
##  3 mom1  NA     NA    
##  4 dad1  NA     NA    
##  5 pid2  mom2   dad2  
##  6 sib2  mom2   dad2  
##  7 mom2  NA     NA    
##  8 dad2  NA     NA    
##  9 pid3  mom3   dad3  
## 10 sib3  mom3   dad3  
## # ℹ 7,990 more rows
…
