…
### From graph to subgraph and kinship matrix

We can construct a kinship matrix from all family members present in
`family`, or we can consider only the family members that are of degree
$n$. We can identify the family members of degree $2$ like this:

``` r
# get_family_graphs wraps make_ego_graph returns a formatted tbl
fam_graph = get_family_graphs(pop_graph = graph,
                              ndegree = 2,
                              proband_vec = V(graph)$name)
fam_graph
```

    ## # A tibble: 31 × 2
    ##    fid      fam_graph
    ##    <chr>    <list>   
    ##  1 pid      <igraph> 
    ##  2 sib      <igraph> 
    ##  3 mhs      <igraph> 
    ##  4 phs      <igraph> 
    ##  5 mom      <igraph> 
    ##  6 dad      <igraph> 
    ##  7 dad2     <igraph> 
    ##  8 paunt    <igraph> 
    ##  9 pacousin <igraph> 
    ## 10 hspaunt  <igraph> 
    ## # ℹ 21 more rows
…
