…
``` r
# get family graphs for all probands in minnbreast data
family_graphs = get_family_graphs(pop_graph = pop_graph,
                                  ndegree = 10, # picking 10th degree relatives, to ensure we get all possible family members in the data
                                  proband_vec = as.character(minnbreast$id))
family_graphs
```

    ## # A tibble: 28,081 × 2
    ##    fid   fam_graph
    ##    <chr> <list>   
    ##  1 1     <igraph> 
    ##  2 2     <igraph> 
    ##  3 3     <igraph> 
    ##  4 4     <igraph> 
    ##  5 5     <igraph> 
    ##  6 6     <igraph> 
    ##  7 7     <igraph> 
    ##  8 8     <igraph> 
    ##  9 9     <igraph> 
    ## 10 10    <igraph> 
    ## # ℹ 28,071 more rows
…
``` r
# extracting just the set of individuals labelled as "proband" in the minnbreast data
proband_ids = minnbreast %>% filter(proband == 1) %>%
  pull(id)

labelled_data = get_relations(family_graphs = family_graphs, family_id_vec = proband_ids)
labelled_data
```

    ## # A tibble: 989,269 × 7
    ##    fid   id1   id2   gen.x gen.y     k lab  
    ##    <chr> <chr> <chr> <dbl> <dbl> <dbl> <chr>
    ##  1 4     1     3         0     2 0.125 GCh  
    ##  2 4     1     4         0     1 0.25  Ch   
    ##  3 4     1     5         0     1 0.25  Ch   
    ##  4 4     1     6         0     1 0.25  Ch   
    ##  5 4     1     7         0     1 0.25  Ch   
    ##  6 4     1     8         0     1 0.25  Ch   
    ##  7 4     1     9         0     1 0.25  Ch   
    ##  8 4     1     10        0     1 0.25  Ch   
    ##  9 4     1     11        0     2 0.125 GCh  
    ## 10 4     1     12        0     2 0.125 GCh  
    ## # ℹ 989,259 more rows
…
