iGraph data management • LTFGRS
…
get_FH = function(cur_proband, cur_graph) {
  fam_indx = which(V(cur_graph)$name != cur_proband)
  any(vertex_attr(cur_graph, name = "status", index = V(cur_graph)$name[fam_indx]))
}

We can then use this function to calculate family history for all
probands in the fam_graphs tibble created above:

fam_graphs %>% 
  mutate(FH = purrr::map2_lgl(.x = fid, .y = fam_graph,
                         .f = ~ get_FH(cur_proband = .x, cur_graph = .y)))

## # A tibble: 31 × 3
##    fid   fam_graph FH   
##    <chr> <list>    <lgl>
##  1 dad   <igraph>  FALSE
##  2 mom   <igraph>  TRUE 
##  3 dad2  <igraph>  TRUE 
##  4 mom2  <igraph>  FALSE
##  5 mgf   <igraph>  FALSE
##  6 mgm   <igraph>  FALSE
##  7 pgf   <igraph>  FALSE
##  8 pgm   <igraph>  FALSE
##  9 pgf2  <igraph>  FALSE
## 10 pgm2  <igraph>  FALSE
## # ℹ 21 more rows
…
