LTFGRS Workflow: Prepare Genetic Liability for Prediction • LTFGRS
…
# assuming we have been provided a CIP object of the following style:
CIP = expand.grid(list(age = 1:100,
                       birth_year = 1900:2024,
                       sex = 0:1)) %>%
  group_by(sex, birth_year) %>%
  mutate(cip = (1:n() - 1)/n() * K) %>%
  ungroup() %>% 
  print(n = 10)
#> # A tibble: 25,000 × 4
#>      age birth_year   sex   cip
#>    <int>      <int> <int> <dbl>
#>  1     1       1900     0 0    
#>  2     2       1900     0 0.003
#>  3     3       1900     0 0.006
#>  4     4       1900     0 0.009
#>  5     5       1900     0 0.012
#>  6     6       1900     0 0.015
#>  7     7       1900     0 0.018
#>  8     8       1900     0 0.021
#>  9     9       1900     0 0.024
#> 10    10       1900     0 0.027
#> # ℹ 24,990 more rows
…
# Identify family members of degree n
family_graphs = get_family_graphs(pop_graph = graph,
                                  ndegree = 1,
                                  proband_vec = pheno$id,
                                  fid = "fid",
                                  fam_graph_col = "fam_graph")
family_graphs %>% print(n = 4)
#> # A tibble: 31 × 2
#>   fid   fam_graph
#>   <chr> <list>   
#> 1 dad   <igraph> 
#> 2 mom   <igraph> 
#> 3 dad2  <igraph> 
#> 4 mom2  <igraph> 
#> # ℹ 27 more rows
…
# attach family specific thresholds
ltfgrs_input = fam_graph_attach_attribute(family_graphs = family_graphs,
                                          fam_attr = fam_thrs,
                                          fam_graph_col = "fam_graph",
                                          attached_fam_graph_col = "masked_fam_graph",
                                          cols_to_attach = c("lower", "upper"),
                                          censor_proband_thrs = TRUE)
ltfgrs_input %>% print(n = 4)
#> # A tibble: 31 × 2
#>   fid   masked_fam_graph
#>   <chr> <list>          
#> 1 dad   <igraph>        
#> 2 mom   <igraph>        
#> 3 dad2  <igraph>        
#> 4 mom2  <igraph>        
#> # ℹ 27 more rows
…
